12729
72448869573765543
503
7867467860
60664699581
3069
5318835160973
827327659433837
3069
503
6216422205
410
60657870263
70492832422500482
60663675767
320263
8756372
3069
165030330406
171
15692
158828030416
3069
154189128125
12729
7964851753
410
1784781677
93522211023385865
5923421742
7869971182
379
1577067072064
158828030416
3069
154189128125
5318819127485
8779248
41880502965
475254
